[
  {
    "id": "tt0848228",
    "movie": "The Avengers",
    "yearOfRelease": 2012,
    "duration": "143 min",
    "poster": "https://m.media-amazon.com/images/M/MV5BNDYxNjQyMjAtNTdiOS00NGYwLWFmNTAtNThmYjU5ZGI2YTI1XkEyXkFqcGdeQXVyMTMxODk2OTU@._V1_SX300.jpg",
    "actors": "Robert Downey Jr., Chris Evans, Mark Ruffalo, Chris Hemsworth",
    "boxOffice": "$623,279,547",
    "rottenTomatoesScore": 9.3
  },
  {
    "id": "tt0120855",
    "movie": "Tarzan",
    "yearOfRelease": 1999,
    "duration": "88 min",
    "poster": "https://m.media-amazon.com/images/M/MV5BY2ZiYWUxN2ItYmQxZi00NDlkLWE2NDAtOTNmYTg1MDI0NDk1XkEyXkFqcGdeQXVyNjUwNzk3NDc@._V1_SX300.jpg",
    "actors": "Brian Blessed, Glenn Close, Minnie Driver, Tony Goldwyn",
    "boxOffice": "N/A",
    "rottenTomatoesScore": 7.3
  }
]